<?xml version="1.0" encoding="UTF-8"?>
<svg width="44px" height="47px" viewBox="0 0 44 47" version="1.1" xmlns="http://www.w3.org/2000/svg" xmlns:xlink="http://www.w3.org/1999/xlink">
    <!-- Generator: Sketch 47 (45396) - http://www.bohemiancoding.com/sketch -->
    <title>Path 2</title>
    <desc>Created with Sketch.</desc>
    <defs></defs>
    <g id="Page-1" stroke="none" stroke-width="1" fill="none" fill-rule="evenodd">
        <g id="Desktop-HD" transform="translate(-624.000000, -96.000000)" fill="#000000">
            <g id="Progress" transform="translate(589.000000, 96.000000)">
                <polygon id="Path-2" points="35 10.6171875 61.4121094 0 78.4765625 18.8925781 78.4765625 34.0195312 48.3691406 46.2890625"></polygon>
            </g>
        </g>
    </g>
</svg>